{
  "code": 0,
  "data": {
    "songid": 102197504,
    "lyric": "[00&#58;00&#46;41]讲真的&#32;&#45;&#32;曾惜&#32;&#40;Cherish&#41;&#10;[00&#58;01&#46;35]词：黄然&#10;[00&#58;01&#46;99]曲：何诗蒙&#10;[00&#58;02&#46;87]&#10;[00&#58;18&#46;45]今夜特别漫长&#10;[00&#58;19&#46;99]&#10;[00&#58;22&#46;23]有个号码一直被存放&#10;[00&#58;25&#46;07]&#10;[00&#58;26&#46;86]源自某种倔强&#10;[00&#58;28&#46;87]&#10;[00&#58;30&#46;58]不舍删去又不敢想&#10;[00&#58;33&#46;19]&#10;[00&#58;33&#46;71]明明对你念念不忘&#10;[00&#58;37&#46;15]&#10;[00&#58;37&#46;92]思前想后越发紧张&#10;[00&#58;41&#46;56]&#10;[00&#58;42&#46;18]无法深藏&#10;[00&#58;43&#46;54]&#10;[00&#58;44&#46;54]爱没爱过想听你讲&#10;[00&#58;48&#46;05]&#10;[00&#58;50&#46;11]讲真的&#10;[00&#58;51&#46;63]会不会是我&#10;[00&#58;53&#46;17]被鬼迷心窍了&#10;[00&#58;54&#46;94]&#10;[00&#58;55&#46;79]敷衍了太多&#10;[00&#58;57&#46;34]我怎么不难过&#10;[00&#58;59&#46;16]&#10;[01&#58;00&#46;04]要你亲口说&#10;[01&#58;01&#46;86]别只剩沉默&#10;[01&#58;03&#46;18]&#10;[01&#58;04&#46;05]或许你早就回答了我&#10;[01&#58;06&#46;76]&#10;[01&#58;07&#46;47]讲真的&#10;[01&#58;08&#46;44]想得不可得&#10;[01&#58;10&#46;00]是最难割舍的&#10;[01&#58;11&#46;67]&#10;[01&#58;12&#46;60]各自好好过&#10;[01&#58;14&#46;17]也好过一直拖&#10;[01&#58;15&#46;91]&#10;[01&#58;16&#46;79]自作多情了&#32;好吧我认了&#10;[01&#58;20&#46;02]&#10;[01&#58;20&#46;79]至少能换来释怀洒脱&#10;[01&#58;23&#46;93]没丢失掉自我&#10;[01&#58;26&#46;44]&#10;[01&#58;42&#46;70]今夜特别漫长&#10;[01&#58;44&#46;25]&#10;[01&#58;46&#46;42]有个号码一直被存放&#10;[01&#58;49&#46;17]&#10;[01&#58;51&#46;10]源自某种倔强&#10;[01&#58;52&#46;88]&#10;[01&#58;54&#46;82]不舍删去又不敢想&#10;[01&#58;57&#46;38]&#10;[01&#58;57&#46;94]明明对你念念不忘&#10;[02&#58;01&#46;21]&#10;[02&#58;02&#46;03]思前想后越发紧张&#10;[02&#58;05&#46;43]&#10;[02&#58;06&#46;34]无法深藏&#10;[02&#58;07&#46;43]&#10;[02&#58;08&#46;84]爱没爱过想听你讲&#10;[02&#58;12&#46;03]&#10;[02&#58;14&#46;23]讲真的&#10;[02&#58;15&#46;78]会不会是我&#10;[02&#58;17&#46;38]被鬼迷心窍了&#10;[02&#58;19&#46;10]&#10;[02&#58;19&#46;99]敷衍了太多&#10;[02&#58;21&#46;54]我怎么不难过&#10;[02&#58;23&#46;36]&#10;[02&#58;24&#46;22]要你亲口说&#10;[02&#58;26&#46;00]别只剩沉默&#10;[02&#58;27&#46;34]&#10;[02&#58;28&#46;07]或许你早就回答了我&#10;[02&#58;30&#46;92]&#10;[02&#58;31&#46;62]讲真的&#10;[02&#58;32&#46;63]想得不可得&#10;[02&#58;34&#46;18]是最难割舍的&#10;[02&#58;35&#46;93]&#10;[02&#58;36&#46;81]各自好好过&#10;[02&#58;38&#46;38]也好过一直拖&#10;[02&#58;40&#46;15]&#10;[02&#58;41&#46;00]自作多情了&#32;好吧我认了&#10;[02&#58;44&#46;26]&#10;[02&#58;44&#46;97]至少能换来释怀洒脱&#10;[02&#58;48&#46;09]没丢失掉自我&#10;[02&#58;50&#46;52]&#10;[03&#58;04&#46;77]讲真的&#10;[03&#58;06&#46;30]会不会是我&#10;[03&#58;07&#46;83]被鬼迷心窍了&#10;[03&#58;09&#46;61]&#10;[03&#58;10&#46;50]敷衍了太多&#10;[03&#58;12&#46;03]我怎么不难过&#10;[03&#58;13&#46;87]&#10;[03&#58;14&#46;73]要你亲口说&#10;[03&#58;16&#46;55]别只剩沉默&#10;[03&#58;17&#46;84]&#10;[03&#58;18&#46;69]或许你早就回答了我&#10;[03&#58;21&#46;30]&#10;[03&#58;22&#46;20]讲真的&#10;[03&#58;23&#46;13]想得不可得&#10;[03&#58;24&#46;68]是最难割舍的&#10;[03&#58;26&#46;50]&#10;[03&#58;27&#46;36]各自好好过&#10;[03&#58;28&#46;84]也好过一直拖&#10;[03&#58;30&#46;70]&#10;[03&#58;31&#46;57]自作多情了&#32;好吧我认了&#10;[03&#58;34&#46;72]&#10;[03&#58;35&#46;50]至少能换来释怀洒脱&#10;[03&#58;37&#46;88]&#10;[03&#58;38&#46;63]没丢失掉自我&#10;[03&#58;41&#46;10]&#10;[03&#58;43&#46;04]没丢失掉自我"
  }
}
