{
  "code": 0,
  "data": {
    "songid": 102197504,
    "lyric": "作曲 : 董冬冬<br>作词 : 陈曦<br>编曲：凃惠源<br><br>习惯梦到你来 不算<br>看我 形只影单<br>何年何月才能 遇见<br>把一梦刻成双剑<br>万千般飘摇 一把桃花伞<br>等我 天涯海角 走遍<br>此时此刻我来许愿<br>把一生存成思念<br>一曲惊天人  一琴一人<br>一舞透销魂<br>一语存天真   一念一嗔<br>一眼定终身<br>一举破云樽   一人一神<br>一笔断伤痕<br>一梦醉乾坤   一敬一斟<br>一醒又三春<br><br>习惯梦到你来 不算<br>看我 形只影单<br>何年何月才能 遇见<br>把一梦刻成双剑<br>万千般飘摇 一把桃花伞<br>等我 天涯海角 走遍<br>此时此刻我来许愿<br>把一生存成思念<br>一曲惊天人  一琴一人<br>一舞透销魂<br>一语存天真   一念一嗔<br>一眼定终身<br>一举破云樽   一人一神<br>一笔断伤痕<br>一梦醉乾坤   一敬一斟<br>一醒又三春<br><br>制作人：凃惠源/曹格<br>和音：曹格<br>录音师：阿洛(台北强力录音室)<br>混音/母带：王路遥(北京2496 Top Music)<br>发行：上海冬曦音乐工作室"
  }
}
